^E:\CLIONPROJECTS\VS\HOME_WORK_19\DEBUG\HOME_WORK_19.OBJ
E:\CLIONPROJECTS\VS\HOME_WORK_19\DEBUG\HOME_WORK_19.EXE
E:\CLIONPROJECTS\VS\HOME_WORK_19\DEBUG\HOME_WORK_19.ILK
E:\CLIONPROJECTS\VS\HOME_WORK_19\DEBUG\HOME_WORK_19.PDB
